[
  {
    "id": 1,
    "title": "Name",
    "type": "text",
    "state": "name"
  },
  {
    "id": 2,
    "title": "Surname",
    "type": "text",
    "state": "surname"
  }, {
  "id": 3,
    "title": "email",
    "type": "text",
    "state": "email"
  },
  {
    "id": 4,
    "title": "phone",
    "type": "number"
  },
  {
    "id": 5,
    "title": "Gender",
    "type": "text",
    "option":["f","m"]
  },
  {
    "id": 6,
    "title": "Role",
    "type": "text",
    "option":["Admin","User"]
  },
  {
    "id": 7,
  "title": "Create_password",
  "type": "password"
},
  {
    "id": 8,
    "title": "Repeat_password",
    "type": "password"
  }
]